Script started on Tue 20 Feb 2018 08:01:29 PM PST
total = 3584 (should be 3584 iff N = 8)
total = 61440 (should be 3584 iff N = 8)
total = 1015808 (should be 3584 iff N = 8)
total = 16515072 (should be 3584 iff N = 8)

Script done on Tue 20 Feb 2018 08:01:32 PM PST
